{
    "title": "All tables",
    "description": "All tables from the RMS database with max seats",
    "type": "object",
    "properties": {
        "tables": {
            "type": "array",
            "minItems": 1,
            "items": {
                "oneOf": [{
                        "type": "object",
                        "properties": {
                            "tableId": {                           
                                "type": "integer",
                                "description": "The unique identifier for a table"
                            },
                            "seats": {
                                "type": "integer",
                                "minimum" : 0
                            }
                        }
                    }
                ]
            }
        }
    }
}
