{
    "title": "Product",
    "description": "A product the RMS database",
    "type": "object",
    "properties": {
        "buyprice": {
            "type": "number",
            "minimum": 0
        },
        "name": {
            "type": "string"
        },
        "id": {
            "description": "The unique identifier for a product",
            "type": "integer"
        },
        "desc": {
            "type": ["string", "null"]
        }
    },
    "required": ["buyprice", "name", "id"]
}
